{
  "project_info": {
    "project_number": "817494321898",
    "firebase_url": "https://wordeaterapp.firebaseio.com",
    "project_id": "wordeaterapp",
    "storage_bucket": "wordeaterapp.appspot.com"
  },
  "client": [
    {
      "client_info": {
        "mobilesdk_app_id": "1:817494321898:android:2b1045fb15fd430c",
        "android_client_info": {
          "package_name": "ru.narod.nod.wordeaterapp"
        }
      },
      "oauth_client": [
        {
          "client_id": "817494321898-kjda3v0j2hsq47p98gpqbukkd778in05.apps.googleusercontent.com",
          "client_type": 3
        }
      ],
      "api_key": [
        {
          "current_key": "AIzaSyBqsw2jr3dI4c-ROGy9kfnw9jK8isrOIj8"
        }
      ],
      "services": {
        "analytics_service": {
          "status": 1
        },
        "appinvite_service": {
          "status": 1,
          "other_platform_oauth_client": []
        },
        "ads_service": {
          "status": 2
        }
      }
    }
  ],
  "configuration_version": "1"
}